<svg xmlns="http://www.w3.org/2000/svg" width="24" height="24" viewBox="0 0 24 24">
  <g id="列表" transform="translate(-933 -25)">
    <g id="菜单_列表" transform="translate(935.1 -80.715)">
      <path id="路径_63" data-name="路径 63" d="M274.286,457.143m.423,0H288.2a.374.374,0,0,1,.423.423v1.252a.374.374,0,0,1-.423.423H274.709a.374.374,0,0,1-.423-.423v-1.252A.374.374,0,0,1,274.709,457.143Z" transform="translate(-269.041 -340.785)" fill="#37f"/>
      <path id="路径_64" data-name="路径 64" d="M274.286,128m.423,0H288.2a.374.374,0,0,1,.423.423v1.252a.374.374,0,0,1-.423.423H274.709a.374.374,0,0,1-.423-.423v-1.252A.374.374,0,0,1,274.709,128Z" transform="translate(-269.041 -17.936)" fill="#37f"/>
      <path id="路径_65" data-name="路径 65" d="M274.286,786.286m.423,0H288.2a.374.374,0,0,1,.423.423v1.252a.374.374,0,0,1-.423.423H274.709a.374.374,0,0,1-.423-.423v-1.252A.374.374,0,0,1,274.709,786.286Z" transform="translate(-269.041 -663.634)" fill="#37f"/>
      <path id="路径_66" data-name="路径 66" d="M1.4,111.113m-1.4,0a1.4,1.4,0,1,0,1.4-1.4A1.4,1.4,0,0,0,0,111.113Z" transform="translate(0 0)" fill="#37f"/>
      <path id="路径_67" data-name="路径 67" d="M1.4,440.256m-1.4,0a1.4,1.4,0,1,0,1.4-1.4A1.4,1.4,0,0,0,0,440.256Z" transform="translate(0 -322.849)" fill="#37f"/>
      <path id="路径_68" data-name="路径 68" d="M1.4,769.4m-1.4,0A1.4,1.4,0,1,0,1.4,768,1.4,1.4,0,0,0,0,769.4Z" transform="translate(0 -645.697)" fill="#37f"/>
    </g>
    <rect id="矩形_142" data-name="矩形 142" width="24" height="24" transform="translate(933 25)" fill="none"/>
  </g>
</svg>
